<?xml version="1.0" encoding="UTF-8" standalone="no"?>
<!-- Created with Inkscape (http://www.inkscape.org/) -->

<svg
   xmlns:dc="http://purl.org/dc/elements/1.1/"
   xmlns:cc="http://creativecommons.org/ns#"
   xmlns:rdf="http://www.w3.org/1999/02/22-rdf-syntax-ns#"
   xmlns:svg="http://www.w3.org/2000/svg"
   xmlns="http://www.w3.org/2000/svg"
   xmlns:sodipodi="http://sodipodi.sourceforge.net/DTD/sodipodi-0.dtd"
   xmlns:inkscape="http://www.inkscape.org/namespaces/inkscape"
   width="8.5in"
   height="3in"
   viewBox="0 0 215.9 76.2"
   version="1.1"
   id="svg2930"
   inkscape:version="0.92.4 (5da689c313, 2019-01-14)"
   sodipodi:docname="cargo_run.svg">
  <defs
     id="defs2924" />
  <sodipodi:namedview
     id="base"
     pagecolor="#ffffff"
     bordercolor="#666666"
     borderopacity="1.0"
     inkscape:pageopacity="0.0"
     inkscape:pageshadow="2"
     inkscape:zoom="0.7"
     inkscape:cx="442.23514"
     inkscape:cy="560"
     inkscape:document-units="mm"
     inkscape:current-layer="layer1"
     showgrid="false"
     inkscape:window-width="1920"
     inkscape:window-height="990"
     inkscape:window-x="0"
     inkscape:window-y="25"
     inkscape:window-maximized="1"
     units="in"
     height="10in" />
  <metadata
     id="metadata2927">
    <rdf:RDF>
      <cc:Work
         rdf:about="">
        <dc:format>image/svg+xml</dc:format>
        <dc:type
           rdf:resource="http://purl.org/dc/dcmitype/StillImage" />
        <dc:title></dc:title>
      </cc:Work>
    </rdf:RDF>
  </metadata>
  <g
     inkscape:label="Layer 1"
     inkscape:groupmode="layer"
     id="layer1"
     transform="translate(0,-220.8)">
    <rect
       style="opacity:1;fill:#d45500;fill-opacity:1;stroke-width:2.08154058;stroke-miterlimit:4;stroke-dasharray:none"
       id="rect817-1"
       width="43.170208"
       height="45.068241"
       x="56.492802"
       y="237.37968"
       ry="5.8297205" />
    <text
       xml:space="preserve"
       style="font-style:normal;font-variant:normal;font-weight:normal;font-stretch:normal;font-size:10.37467861px;line-height:1.25;font-family:'Royal Vogue';-inkscape-font-specification:'Royal Vogue, Normal';font-variant-ligatures:normal;font-variant-caps:normal;font-variant-numeric:normal;font-feature-settings:normal;text-align:start;letter-spacing:0px;word-spacing:0px;writing-mode:lr-tb;text-anchor:start;opacity:1;fill:#ffffff;fill-opacity:1;stroke:none;stroke-width:0.28060517"
       x="67.660423"
       y="235.3372"
       id="text821-6"
       transform="scale(0.89608553,1.1159649)"><tspan
         sodipodi:role="line"
         id="tspan961"
         x="67.660423"
         y="235.3372"
         style="stroke-width:0.28060517">compile</tspan></text>
    <path
       style="opacity:1;fill:#d45500;fill-opacity:1;stroke-width:2.08154058;stroke-miterlimit:4;stroke-dasharray:none"
       id="path831-91"
       d="m 21.065059,270.03801 c 2.088859,-0.13677 4.185126,-0.10537 6.27733,-0.1016 8.482442,0.0777 16.965148,0.11186 25.447903,0.13518 7.32468,0.0517 14.654804,-0.11209 21.975727,0.19614 3.911425,0.16469 5.635793,0.33896 9.480307,0.64855 4.848809,0.47834 9.706865,0.91934 14.534949,1.56928 0,0 -2.603539,1.75991 -2.603539,1.75991 v 0 c -4.688754,-0.75559 -9.409599,-1.32644 -14.135495,-1.81869 -3.851336,-0.34083 -5.448735,-0.52094 -9.37452,-0.70368 -7.304049,-0.34001 -14.619531,-0.19565 -21.928431,-0.21961 -8.649673,0.0277 -17.300177,0.0485 -25.948376,0.21832 -2.17434,0.0497 -4.34955,0.0971 -6.518205,0.26557 0,0 2.79235,-1.94937 2.79235,-1.94937 z"
       inkscape:connector-curvature="0" />
    <path
       style="opacity:1;fill:#d45500;fill-opacity:1;stroke-width:2.08154058;stroke-miterlimit:4;stroke-dasharray:none"
       id="path831-9-2"
       d="m 20.430979,249.90393 c 2.088859,-0.13677 4.185132,-0.10538 6.277337,-0.10161 8.482433,0.0777 16.965146,0.11186 25.447903,0.13518 7.324678,0.0517 14.654798,-0.11209 21.97572,0.19615 3.911432,0.16469 5.635793,0.33896 9.480308,0.64855 4.848808,0.47834 9.706865,0.91933 14.534948,1.56927 0,0 -2.603538,1.75992 -2.603538,1.75992 v 0 c -4.688755,-0.7556 -9.4096,-1.32644 -14.135495,-1.8187 -3.851331,-0.34083 -5.448729,-0.52094 -9.374515,-0.70368 -7.304055,-0.34 -14.619537,-0.19565 -21.928436,-0.21961 -8.649676,0.0277 -17.300172,0.0485 -25.948376,0.21832 -2.174334,0.0497 -4.349551,0.0971 -6.518199,0.26557 0,0 2.792343,-1.94936 2.792343,-1.94936 z"
       inkscape:connector-curvature="0" />
    <text
       xml:space="preserve"
       style="font-style:normal;font-variant:normal;font-weight:normal;font-stretch:normal;font-size:6.40467024px;line-height:1.25;font-family:sans-serif;-inkscape-font-specification:'sans-serif, Normal';font-variant-ligatures:normal;font-variant-caps:normal;font-variant-numeric:normal;font-feature-settings:normal;text-align:start;letter-spacing:0px;word-spacing:0px;writing-mode:lr-tb;text-anchor:start;opacity:1;fill:#d45500;fill-opacity:1;stroke:none;stroke-width:0.16011851"
       x="24.267584"
       y="250.6906"
       id="text856-4"
       transform="scale(1.0201615,0.98023695)"><tspan
         style="stroke-width:0.16011851"
         sodipodi:role="line"
         id="tspan955"
         x="24.267584"
         y="250.6906">hello.rs</tspan></text>
    <text
       xml:space="preserve"
       style="font-style:normal;font-variant:normal;font-weight:normal;font-stretch:normal;font-size:6.40467024px;line-height:1.25;font-family:sans-serif;-inkscape-font-specification:'sans-serif, Normal';font-variant-ligatures:normal;font-variant-caps:normal;font-variant-numeric:normal;font-feature-settings:normal;text-align:start;letter-spacing:0px;word-spacing:0px;writing-mode:lr-tb;text-anchor:start;opacity:1;fill:#d45500;fill-opacity:1;stroke:none;stroke-width:0.16011851"
       x="25.640034"
       y="271.40924"
       id="text872-0"
       transform="scale(1.0201615,0.98023695)"><tspan
         style="stroke-width:0.16011851"
         sodipodi:role="line"
         id="tspan957"
         x="25.640034"
         y="271.40924">rustc</tspan></text>
    <path
       style="opacity:1;fill:#d45500;fill-opacity:1;stroke-width:2.08154058;stroke-miterlimit:4;stroke-dasharray:none"
       id="path884-4"
       d="m 98.952915,258.1516 c 1.080495,0.0122 2.161035,0.0197 3.241545,0.0328 4.11097,0.0584 8.22235,0.0815 12.33371,0.0947 4.42458,0.0527 8.85544,-0.14243 13.27572,0.0994 1.06876,0.0595 2.1193,0.2492 3.1666,0.44902 0,0 -2.75614,1.84122 -2.75614,1.84122 v 0 c -1.00318,-0.21575 -2.01152,-0.40854 -3.03976,-0.4788 -4.35318,-0.2878 -8.72101,-0.18253 -13.08136,-0.21097 -4.20178,0.0133 -8.40359,0.0372 -12.605005,0.0947 -1.111849,0.013 -2.223726,0.0206 -3.335554,0.0328 0,0 2.800244,-1.95487 2.800244,-1.95487 z"
       inkscape:connector-curvature="0" />
    <text
       xml:space="preserve"
       style="font-style:normal;font-variant:normal;font-weight:normal;font-stretch:normal;font-size:6.40467024px;line-height:1.25;font-family:sans-serif;-inkscape-font-specification:'sans-serif, Normal';font-variant-ligatures:normal;font-variant-caps:normal;font-variant-numeric:normal;font-feature-settings:normal;text-align:start;letter-spacing:0px;word-spacing:0px;writing-mode:lr-tb;text-anchor:start;opacity:1;fill:#d45500;fill-opacity:1;stroke:none;stroke-width:0.16011851"
       x="103.6406"
       y="261.37982"
       id="text888-4"
       transform="scale(1.0201615,0.98023695)"><tspan
         style="stroke-width:0.16011851"
         y="261.37982"
         x="103.6406"
         sodipodi:role="line"
         id="tspan959">hello</tspan></text>
    <rect
       style="opacity:1;fill:#d45500;fill-opacity:1;stroke-width:2.08154058;stroke-miterlimit:4;stroke-dasharray:none"
       id="rect817-2"
       width="43.170208"
       height="45.068241"
       x="126.73192"
       y="237.09079"
       ry="5.8297205" />
    <text
       xml:space="preserve"
       style="font-style:normal;font-variant:normal;font-weight:normal;font-stretch:normal;font-size:11.95551586px;line-height:1.25;font-family:'Royal Vogue';-inkscape-font-specification:'Royal Vogue, Normal';font-variant-ligatures:normal;font-variant-caps:normal;font-variant-numeric:normal;font-feature-settings:normal;text-align:start;letter-spacing:0px;word-spacing:0px;writing-mode:lr-tb;text-anchor:start;opacity:1;fill:#ffffff;fill-opacity:1;stroke:none;stroke-width:0.32336435"
       x="133.87776"
       y="270.90005"
       id="text821-5"
       transform="scale(1.0326328,0.96839844)"><tspan
         sodipodi:role="line"
         id="tspan819-1"
         x="133.87776"
         y="270.90005"
         style="font-style:normal;font-variant:normal;font-weight:normal;font-stretch:normal;font-size:11.95551586px;font-family:'Royal Vogue';-inkscape-font-specification:'Royal Vogue, Normal';font-variant-ligatures:normal;font-variant-caps:normal;font-variant-numeric:normal;font-feature-settings:normal;text-align:start;writing-mode:lr-tb;text-anchor:start;fill:#ffffff;fill-opacity:1;stroke-width:0.32336435">run</tspan></text>
    <path
       style="opacity:1;fill:#d45500;fill-opacity:1;stroke-width:2.08154058;stroke-miterlimit:4;stroke-dasharray:none"
       id="path884-8"
       d="m 169.19201,257.8627 c 1.08049,0.0122 2.16103,0.0197 3.24154,0.0328 4.11097,0.0584 8.22235,0.0816 12.33372,0.0947 4.42458,0.0527 8.85543,-0.14243 13.27571,0.0994 1.06876,0.0595 2.1193,0.24919 3.1666,0.44901 0,0 -2.75614,1.84123 -2.75614,1.84123 v 0 c -1.00317,-0.21576 -2.01152,-0.40854 -3.03976,-0.47881 -4.35317,-0.2878 -8.72101,-0.18253 -13.08136,-0.21097 -4.20178,0.0133 -8.40358,0.0371 -12.605,0.0947 -1.11184,0.013 -2.22372,0.0206 -3.33555,0.0328 0,0 2.80024,-1.95487 2.80024,-1.95487 z"
       inkscape:connector-curvature="0" />
    <text
       xml:space="preserve"
       style="font-style:normal;font-weight:normal;font-size:6.40474033px;line-height:1.25;font-family:sans-serif;letter-spacing:0px;word-spacing:0px;opacity:1;fill:#d45500;fill-opacity:1;stroke:none;stroke-width:0.16011851"
       x="172.49156"
       y="261.08511"
       id="text888-0"
       transform="scale(1.0201615,0.98023695)"><tspan
         sodipodi:role="line"
         id="tspan886-8"
         x="172.49156"
         y="261.08511"
         style="fill:#d45500;stroke-width:0.16011851">results</tspan></text>
  </g>
</svg>
