<?xml version="1.0" encoding="UTF-8" standalone="no"?>
<!-- Created with Inkscape (http://www.inkscape.org/) -->

<svg
   xmlns:dc="http://purl.org/dc/elements/1.1/"
   xmlns:cc="http://creativecommons.org/ns#"
   xmlns:rdf="http://www.w3.org/1999/02/22-rdf-syntax-ns#"
   xmlns:svg="http://www.w3.org/2000/svg"
   xmlns="http://www.w3.org/2000/svg"
   xmlns:sodipodi="http://sodipodi.sourceforge.net/DTD/sodipodi-0.dtd"
   xmlns:inkscape="http://www.inkscape.org/namespaces/inkscape"
   width="8.5in"
   height="11in"
   viewBox="0 0 215.9 279.4"
   version="1.1"
   id="svg8"
   inkscape:version="0.92.4 (5da689c313, 2019-01-14)"
   sodipodi:docname="hello.svg">
  <defs
     id="defs2" />
  <sodipodi:namedview
     id="base"
     pagecolor="#ffffff"
     bordercolor="#666666"
     borderopacity="1.0"
     inkscape:pageopacity="0.0"
     inkscape:pageshadow="2"
     inkscape:zoom="0.7"
     inkscape:cx="345.76303"
     inkscape:cy="561.42857"
     inkscape:document-units="mm"
     inkscape:current-layer="layer1"
     showgrid="false"
     inkscape:lockguides="false"
     units="in"
     fit-margin-top="0"
     fit-margin-left="0"
     fit-margin-right="0"
     fit-margin-bottom="0"
     inkscape:window-width="1920"
     inkscape:window-height="990"
     inkscape:window-x="0"
     inkscape:window-y="25"
     inkscape:window-maximized="1" />
  <metadata
     id="metadata5">
    <rdf:RDF>
      <cc:Work
         rdf:about="">
        <dc:format>image/svg+xml</dc:format>
        <dc:type
           rdf:resource="http://purl.org/dc/dcmitype/StillImage" />
        <dc:title />
      </cc:Work>
    </rdf:RDF>
  </metadata>
  <g
     inkscape:label="Layer 1"
     inkscape:groupmode="layer"
     id="layer1"
     style="opacity:1"
     transform="translate(0,-17.6)">
    <rect
       style="fill:#1e90ff;fill-opacity:1;stroke-width:3.03019166;stroke-miterlimit:4;stroke-dasharray:none"
       id="rect817"
       width="69.925591"
       height="58.964283"
       x="73.327385"
       y="32.038689"
       ry="7.6272173" />
    <text
       xml:space="preserve"
       style="font-style:normal;font-variant:normal;font-weight:normal;font-stretch:normal;font-size:17.40417862px;line-height:1.25;font-family:'Royal Vogue';-inkscape-font-specification:'Royal Vogue, Normal';font-variant-ligatures:normal;font-variant-caps:normal;font-variant-numeric:normal;font-feature-settings:normal;text-align:start;letter-spacing:0px;word-spacing:0px;writing-mode:lr-tb;text-anchor:start;fill:#ffffff;fill-opacity:1;stroke:none;stroke-width:0.47073591"
       x="80.052216"
       y="74.766518"
       id="text821"
       transform="scale(1.1489807,0.87033661)"><tspan
         sodipodi:role="line"
         id="tspan819"
         x="80.052216"
         y="74.766518"
         style="font-style:normal;font-variant:normal;font-weight:normal;font-stretch:normal;font-size:17.40417862px;font-family:'Royal Vogue';-inkscape-font-specification:'Royal Vogue, Normal';font-variant-ligatures:normal;font-variant-caps:normal;font-variant-numeric:normal;font-feature-settings:normal;text-align:start;writing-mode:lr-tb;text-anchor:start;fill:#ffffff;fill-opacity:1;stroke-width:0.47073591">run</tspan></text>
    <path
       style="fill:#1e90ff;fill-opacity:1;stroke-width:3.03019166;stroke-miterlimit:4;stroke-dasharray:none"
       id="path831"
       d="m 15.942765,74.766674 c 3.38346,-0.178935 6.778925,-0.13787 10.167806,-0.132926 13.739551,0.101687 27.479546,0.146337 41.219615,0.176862 11.864265,0.0676 23.737337,-0.146656 35.595514,0.256624 6.33559,0.215458 9.12865,0.443466 15.35586,0.848515 7.85393,0.625824 15.72284,1.202799 23.54321,2.053131 0,0 -4.21712,2.302552 -4.21712,2.302552 v 0 C 130.01296,79.282866 122.3663,78.536014 114.71146,77.891974 108.47321,77.446055 105.8858,77.210417 99.526949,76.971326 87.696104,76.526493 75.846742,76.715354 64.008043,76.684007 c -14.010441,0.03632 -28.022216,0.06341 -42.030268,0.285627 -3.521914,0.06496 -7.04525,0.127105 -10.557957,0.347461 0,0 4.522947,-2.550421 4.522947,-2.550421 z"
       inkscape:connector-curvature="0" />
    <path
       style="opacity:1;fill:#1e90ff;fill-opacity:1;stroke-width:3.03019166;stroke-miterlimit:4;stroke-dasharray:none"
       id="path831-9"
       d="m 14.915711,48.424576 c 3.38346,-0.178935 6.778925,-0.13787 10.167806,-0.132926 13.739552,0.101687 27.479547,0.146337 41.219616,0.176862 11.864266,0.0676 23.737337,-0.146656 35.595507,0.256624 6.3356,0.215458 9.12865,0.443467 15.35586,0.848516 7.85393,0.625823 15.72284,1.202798 23.54321,2.05313 0,0 -4.21712,2.30256 -4.21712,2.30256 v 0 C 128.9859,52.940768 121.33924,52.193916 113.6844,51.549877 107.44616,51.103957 104.85875,50.86832 98.499895,50.629228 86.669051,50.184395 74.819689,50.373256 62.98099,50.341909 c -14.010441,0.03632 -28.022217,0.06341 -42.030269,0.285627 -3.521914,0.06496 -7.04525,0.127105 -10.557957,0.347461 0,0 4.522947,-2.550421 4.522947,-2.550421 z"
       inkscape:connector-curvature="0" />
    <text
       xml:space="preserve"
       style="font-style:normal;font-weight:normal;font-size:9.32366657px;line-height:1.25;font-family:sans-serif;letter-spacing:0px;word-spacing:0px;fill:#1e90ff;fill-opacity:1;stroke:none;stroke-width:0.23309165;"
       x="24.641119"
       y="51.351711"
       id="text856"
       transform="scale(1.1351042,0.88097639)"><tspan
         sodipodi:role="line"
         x="24.641119"
         y="51.351711"
         style="fill:#1e90ff;stroke-width:0.23309165;fill-opacity:1;"
         id="tspan862">hello</tspan></text>
    <text
       xml:space="preserve"
       style="font-style:normal;font-weight:normal;font-size:9.32366657px;line-height:1.25;font-family:sans-serif;letter-spacing:0px;word-spacing:0px;fill:#1e90ff;fill-opacity:1;stroke:none;stroke-width:0.23309165;"
       x="25.307096"
       y="80.654663"
       id="text872"
       transform="scale(1.1351042,0.88097639)"><tspan
         sodipodi:role="line"
         id="tspan870"
         x="25.307096"
         y="80.654663"
         style="fill:#1e90ff;stroke-width:0.23309165;fill-opacity:1;">perl</tspan></text>
    <path
       style="fill:#1e90ff;fill-opacity:1;stroke-width:3.03019166;stroke-miterlimit:4;stroke-dasharray:none"
       id="path884"
       d="m 142.10278,59.215282 c 1.75014,0.01599 3.50036,0.02577 5.25053,0.04292 6.6588,0.07637 13.31828,0.106701 19.97772,0.123892 7.16678,0.06892 14.34373,-0.186338 21.50353,0.130031 1.73115,0.0779 3.43278,0.326033 5.12915,0.587461 0,0 -4.46429,2.408942 -4.46429,2.408942 v 0 c -1.62491,-0.282282 -3.2582,-0.534505 -4.9237,-0.626437 -7.05112,-0.376542 -14.12598,-0.238812 -21.18873,-0.276019 -6.8059,0.01738 -13.61183,0.04859 -20.41714,0.123892 -1.80092,0.017 -3.6019,0.02701 -5.4028,0.04292 0,0 4.53573,-2.557617 4.53573,-2.557617 z"
       inkscape:connector-curvature="0" />
    <text
       xml:space="preserve"
       style="font-style:normal;font-weight:normal;font-size:9.32366657px;line-height:1.25;font-family:sans-serif;letter-spacing:0px;word-spacing:0px;fill:#1e90ff;fill-opacity:1;stroke:none;stroke-width:0.23309165;"
       x="134.86017"
       y="64.338249"
       id="text888"
       transform="scale(1.1351042,0.88097639)"><tspan
         sodipodi:role="line"
         id="tspan886"
         x="134.86017"
         y="64.338249"
         style="fill:#1e90ff;stroke-width:0.23309165;fill-opacity:1;">results</tspan></text>
    <rect
       style="opacity:1;fill:#d45500;fill-opacity:1;stroke-width:3.03019166;stroke-miterlimit:4;stroke-dasharray:none"
       id="rect817-1"
       width="69.925591"
       height="58.964283"
       x="75.470581"
       y="117.46131"
       ry="7.6272173" />
    <text
       xml:space="preserve"
       style="font-style:normal;font-variant:normal;font-weight:normal;font-stretch:normal;font-size:15.10288334px;line-height:1.25;font-family:'Royal Vogue';-inkscape-font-specification:'Royal Vogue, Normal';font-variant-ligatures:normal;font-variant-caps:normal;font-variant-numeric:normal;font-feature-settings:normal;text-align:start;letter-spacing:0px;word-spacing:0px;writing-mode:lr-tb;text-anchor:start;opacity:1;fill:#ffffff;fill-opacity:1;stroke:none;stroke-width:0.40848947"
       x="82.414337"
       y="150.05045"
       id="text821-6"
       transform="scale(0.99704843,1.0029603)"><tspan
         sodipodi:role="line"
         id="tspan961"
         x="82.414337"
         y="150.05045"
         style="stroke-width:0.40848947">compile</tspan></text>
    <path
       style="opacity:1;fill:#d45500;fill-opacity:1;stroke-width:3.03019166;stroke-miterlimit:4;stroke-dasharray:none"
       id="path831-91"
       d="m 18.085958,160.1893 c 3.38346,-0.17894 6.77892,-0.13787 10.1678,-0.13293 13.73956,0.10169 27.47955,0.14634 41.21962,0.17686 11.86426,0.0676 23.73734,-0.14665 35.595512,0.25662 6.33559,0.21546 9.12866,0.44347 15.35587,0.84852 7.85393,0.62582 15.72284,1.2028 23.54321,2.05313 0,0 -4.21712,2.30255 -4.21712,2.30255 v 0 c -7.59469,-0.98856 -15.24135,-1.73542 -22.89619,-2.37945 -6.23826,-0.44592 -8.82567,-0.68156 -15.18452,-0.92065 -11.830842,-0.44484 -23.680202,-0.25597 -35.518902,-0.28732 -14.01044,0.0363 -28.02222,0.0634 -42.03027,0.28563 -3.52192,0.065 -7.04525,0.1271 -10.55796,0.34746 0,0 4.52295,-2.55042 4.52295,-2.55042 z"
       inkscape:connector-curvature="0" />
    <path
       style="opacity:1;fill:#d45500;fill-opacity:1;stroke-width:3.03019166;stroke-miterlimit:4;stroke-dasharray:none"
       id="path831-9-2"
       d="m 17.058898,133.8472 c 3.38346,-0.17894 6.77893,-0.13787 10.16781,-0.13293 13.73955,0.10169 27.47955,0.14634 41.21962,0.17686 11.86426,0.0676 23.73733,-0.14665 35.595502,0.25663 6.3356,0.21546 9.12866,0.44347 15.35587,0.84851 7.85393,0.62583 15.72284,1.2028 23.54321,2.05313 0,0 -4.21712,2.30256 -4.21712,2.30256 v 0 c -7.59469,-0.98857 -15.24135,-1.73542 -22.89619,-2.37946 -6.23825,-0.44592 -8.82566,-0.68156 -15.18451,-0.92065 -11.830852,-0.44483 -23.680212,-0.25597 -35.518912,-0.28732 -14.01044,0.0363 -28.02221,0.0634 -42.03027,0.28563 -3.52191,0.065 -7.04525,0.1271 -10.55795,0.34746 0,0 4.52294,-2.55042 4.52294,-2.55042 z"
       inkscape:connector-curvature="0" />
    <text
       xml:space="preserve"
       style="font-style:normal;font-variant:normal;font-weight:normal;font-stretch:normal;font-size:9.32356453px;line-height:1.25;font-family:sans-serif;-inkscape-font-specification:'sans-serif, Normal';font-variant-ligatures:normal;font-variant-caps:normal;font-variant-numeric:normal;font-feature-settings:normal;text-align:start;letter-spacing:0px;word-spacing:0px;writing-mode:lr-tb;text-anchor:start;opacity:1;fill:#d45500;fill-opacity:1;stroke:none;stroke-width:0.23309165"
       x="21.201399"
       y="145.74104"
       id="text856-4"
       transform="scale(1.1351042,0.88097638)"><tspan
         sodipodi:role="line"
         id="tspan955"
         x="21.201399"
         y="145.74104">hello.rs</tspan></text>
    <text
       xml:space="preserve"
       style="font-style:normal;font-variant:normal;font-weight:normal;font-stretch:normal;font-size:9.32356453px;line-height:1.25;font-family:sans-serif;-inkscape-font-specification:'sans-serif, Normal';font-variant-ligatures:normal;font-variant-caps:normal;font-variant-numeric:normal;font-feature-settings:normal;text-align:start;letter-spacing:0px;word-spacing:0px;writing-mode:lr-tb;text-anchor:start;opacity:1;fill:#d45500;fill-opacity:1;stroke:none;stroke-width:0.23309165"
       x="23.199337"
       y="175.90207"
       id="text872-0"
       transform="scale(1.1351042,0.88097638)"><tspan
         sodipodi:role="line"
         id="tspan957"
         x="23.199337"
         y="175.90207">rustc</tspan></text>
    <path
       style="opacity:1;fill:#d45500;fill-opacity:1;stroke-width:3.03019166;stroke-miterlimit:4;stroke-dasharray:none"
       id="path884-4"
       d="m 144.24598,144.6379 c 1.75014,0.016 3.50036,0.0258 5.25053,0.0429 6.6588,0.0764 13.31828,0.1067 19.97772,0.1239 7.16678,0.0689 14.34373,-0.18634 21.50353,0.13002 1.73115,0.0779 3.43278,0.32604 5.12915,0.58747 0,0 -4.46429,2.40894 -4.46429,2.40894 v 0 c -1.62491,-0.28228 -3.2582,-0.53451 -4.9237,-0.62644 -7.05112,-0.37654 -14.12598,-0.23881 -21.18873,-0.27602 -6.8059,0.0174 -13.61183,0.0486 -20.41714,0.12389 -1.80092,0.017 -3.6019,0.027 -5.4028,0.0429 0,0 4.53573,-2.55761 4.53573,-2.55761 z"
       inkscape:connector-curvature="0" />
    <text
       xml:space="preserve"
       style="font-style:normal;font-weight:normal;font-size:9.32356419px;line-height:1.25;font-family:sans-serif;letter-spacing:0px;word-spacing:0px;opacity:1;fill:#d45500;fill-opacity:1;stroke:none;stroke-width:0.23309165;-inkscape-font-specification:'sans-serif, Normal';font-stretch:normal;font-variant:normal;text-anchor:start;text-align:start;writing-mode:lr;font-variant-ligatures:normal;font-variant-caps:normal;font-variant-numeric:normal;font-feature-settings:normal;"
       x="136.74826"
       y="161.30183"
       id="text888-4"
       transform="scale(1.1351042,0.88097638)"><tspan
         sodipodi:role="line"
         id="tspan959">hello</tspan></text>
    <rect
       style="opacity:1;fill:#d45500;fill-opacity:1;stroke-width:3.03019166;stroke-miterlimit:4;stroke-dasharray:none"
       id="rect817-2"
       width="69.925591"
       height="58.964283"
       x="76.604507"
       y="194.94643"
       ry="7.6272173" />
    <text
       xml:space="preserve"
       style="font-style:normal;font-variant:normal;font-weight:normal;font-stretch:normal;font-size:17.40417862px;line-height:1.25;font-family:'Royal Vogue';-inkscape-font-specification:'Royal Vogue, Normal';font-variant-ligatures:normal;font-variant-caps:normal;font-variant-numeric:normal;font-feature-settings:normal;text-align:start;letter-spacing:0px;word-spacing:0px;writing-mode:lr-tb;text-anchor:start;opacity:1;fill:#ffffff;fill-opacity:1;stroke:none;stroke-width:0.47073591;"
       x="82.904411"
       y="261.94437"
       id="text821-5"
       transform="scale(1.1489807,0.87033663)"><tspan
         sodipodi:role="line"
         id="tspan819-1"
         x="82.904411"
         y="261.94437"
         style="font-style:normal;font-variant:normal;font-weight:normal;font-stretch:normal;font-size:17.40417862px;font-family:'Royal Vogue';-inkscape-font-specification:'Royal Vogue, Normal';font-variant-ligatures:normal;font-variant-caps:normal;font-variant-numeric:normal;font-feature-settings:normal;text-align:start;writing-mode:lr-tb;text-anchor:start;fill:#ffffff;fill-opacity:1;stroke-width:0.47073591;">run</tspan></text>
    <text
       xml:space="preserve"
       style="font-style:normal;font-weight:normal;font-size:9.32366657px;line-height:1.25;font-family:sans-serif;letter-spacing:0px;word-spacing:0px;opacity:1;fill:#d45500;fill-opacity:1;stroke:none;stroke-width:0.23309165"
       x="24.682043"
       y="247.78581"
       id="text856-0"
       transform="scale(1.1351042,0.88097638)"><tspan
         sodipodi:role="line"
         x="24.682043"
         y="247.78581"
         style="fill:#d45500;stroke-width:0.23309165"
         id="tspan862-6">hello</tspan></text>
    <path
       style="opacity:1;fill:#d45500;fill-opacity:1;stroke-width:3.03019166;stroke-miterlimit:4;stroke-dasharray:none"
       id="path884-8"
       d="m 145.3799,222.12302 c 1.75014,0.016 3.50036,0.0258 5.25053,0.0429 6.6588,0.0764 13.31828,0.10671 19.97772,0.1239 7.16678,0.0689 14.34373,-0.18634 21.50353,0.13003 1.73115,0.0779 3.43278,0.32603 5.12915,0.58746 0,0 -4.46429,2.40894 -4.46429,2.40894 v 0 c -1.62491,-0.28228 -3.2582,-0.5345 -4.9237,-0.62644 -7.05112,-0.37654 -14.12598,-0.23881 -21.18873,-0.27602 -6.8059,0.0174 -13.61183,0.0486 -20.41714,0.1239 -1.80092,0.017 -3.6019,0.027 -5.4028,0.0429 0,0 4.53573,-2.55762 4.53573,-2.55762 z"
       inkscape:connector-curvature="0" />
    <text
       xml:space="preserve"
       style="font-style:normal;font-weight:normal;font-size:9.32366657px;line-height:1.25;font-family:sans-serif;letter-spacing:0px;word-spacing:0px;opacity:1;fill:#d45500;fill-opacity:1;stroke:none;stroke-width:0.23309165;"
       x="137.74722"
       y="249.25551"
       id="text888-0"
       transform="scale(1.1351042,0.88097638)"><tspan
         sodipodi:role="line"
         id="tspan886-8"
         x="137.74722"
         y="249.25551"
         style="fill:#d45500;stroke-width:0.23309165;">results</tspan></text>
    <path
       id="path831-9-26-6"
       style="opacity:1;fill:#d45500;fill-opacity:1;stroke-width:2.41977453;stroke-miterlimit:4;stroke-dasharray:none"
       d="m 26.266023,221.98479 c -1.621811,-0.005 -3.244554,0.005 -4.862752,0.13953 l -2.884062,2.55023 c 2.24002,-0.22036 4.487035,-0.28227 6.732922,-0.34727 8.932793,-0.22223 17.867663,-0.24947 26.801981,-0.28577 7.54942,0.0314 15.10588,-0.15751 22.650296,0.28732 1.374473,0.081 2.463914,0.16258 3.470074,0.25115 -0.459227,-0.68771 -0.331835,-1.51783 0.321426,-2.05931 -0.50587,-0.0324 -1.036383,-0.0642 -1.624189,-0.0956 -7.561837,-0.40328 -15.133148,-0.18923 -22.698874,-0.25683 -8.761905,-0.0305 -17.523642,-0.075 -26.285216,-0.17673 -0.540263,-0.001 -1.081003,-0.005 -1.621606,-0.007 z m 63.164101,1.63143 c 0.03443,0.0285 0.07286,0.0599 0.109556,0.0904 0.09319,-0.0125 0.185391,-0.0285 0.278019,-0.0429 -0.129193,-0.016 -0.258384,-0.0316 -0.387575,-0.0475 z m -4.33565,1.70377 c -0.0013,2.6e-4 -0.03032,0.007 -0.07441,0.017 0.0041,5.2e-4 0.0083,0.001 0.01241,0.002 0.0092,-0.003 0.06268,-0.0188 0.06201,-0.0186 z"
       inkscape:connector-curvature="0" />
  </g>
</svg>
