<?xml version="1.0" encoding="UTF-8" standalone="no"?>
<!-- Created with Inkscape (http://www.inkscape.org/) -->

<svg
   xmlns:dc="http://purl.org/dc/elements/1.1/"
   xmlns:cc="http://creativecommons.org/ns#"
   xmlns:rdf="http://www.w3.org/1999/02/22-rdf-syntax-ns#"
   xmlns:svg="http://www.w3.org/2000/svg"
   xmlns="http://www.w3.org/2000/svg"
   xmlns:sodipodi="http://sodipodi.sourceforge.net/DTD/sodipodi-0.dtd"
   xmlns:inkscape="http://www.inkscape.org/namespaces/inkscape"
   width="8.5in"
   height="4in"
   viewBox="0 0 210 108"
   version="1.1"
   id="svg8"
   inkscape:version="0.92.4 (5da689c313, 2019-01-14)"
   sodipodi:docname="ownership.svg">
  <defs
     id="defs2" />
  <sodipodi:namedview
     id="base"
     pagecolor="#ffffff"
     bordercolor="#666666"
     borderopacity="1.0"
     inkscape:pageopacity="0.0"
     inkscape:pageshadow="2"
     inkscape:zoom="0.7"
     inkscape:cx="367.08491"
     inkscape:cy="-10"
     inkscape:document-units="in"
     inkscape:current-layer="layer1"
     showgrid="false"
     inkscape:window-width="1920"
     inkscape:window-height="990"
     inkscape:window-x="0"
     inkscape:window-y="25"
     inkscape:window-maximized="1" />
  <metadata
     id="metadata5">
    <rdf:RDF>
      <cc:Work
         rdf:about="">
        <dc:format>image/svg+xml</dc:format>
        <dc:type
           rdf:resource="http://purl.org/dc/dcmitype/StillImage" />
        <dc:title></dc:title>
      </cc:Work>
    </rdf:RDF>
  </metadata>
  <g
     inkscape:label="Layer 1"
     inkscape:groupmode="layer"
     id="layer1"
     transform="translate(0,-189)">
    <path
       sodipodi:type="star"
       style="opacity:1;fill:#d45500;fill-opacity:1;stroke:none;stroke-width:0.26999998;stroke-miterlimit:4;stroke-dasharray:none;stroke-opacity:1"
       id="path815"
       sodipodi:sides="3"
       sodipodi:cx="95.919647"
       sodipodi:cy="68.785713"
       sodipodi:r1="24.323803"
       sodipodi:r2="12.161902"
       sodipodi:arg1="-2.108383"
       sodipodi:arg2="-1.0611854"
       inkscape:flatsided="true"
       inkscape:rounded="0.05"
       inkscape:randomized="0"
       d="m 83.46429,47.892857 c 1.809374,-1.078666 36.74732,18.446331 36.77678,20.552628 0.0295,2.106297 -34.34865,22.600944 -36.187489,21.573313 C 82.214742,88.991166 81.654915,48.971522 83.46429,47.892857 Z"
       inkscape:transform-center-x="-0.0091351076"
       inkscape:transform-center-y="-9.6357349"
       transform="matrix(1.6442363,0.91365056,-0.97932893,1.5339661,12.394922,61.479774)" />
    <text
       xml:space="preserve"
       style="font-style:normal;font-weight:normal;font-size:11.25px;line-height:1.25;font-family:sans-serif;letter-spacing:0px;word-spacing:0px;fill:#000000;fill-opacity:1;stroke:none;stroke-width:0.28125"
       x="76.23214"
       y="206.59822"
       id="text821"><tspan
         sodipodi:role="line"
         id="tspan819"
         x="76.23214"
         y="206.59822"
         style="stroke-width:0.28125">ownership</tspan></text>
    <text
       xml:space="preserve"
       style="font-style:normal;font-weight:normal;font-size:11.25px;line-height:1.25;font-family:sans-serif;letter-spacing:0px;word-spacing:0px;fill:#000000;fill-opacity:1;stroke:none;stroke-width:0.28125"
       x="10.741069"
       y="287.35715"
       id="text825"><tspan
         sodipodi:role="line"
         id="tspan823"
         x="10.741069"
         y="287.35715"
         style="stroke-width:0.28125">borrowing</tspan></text>
    <text
       xml:space="preserve"
       style="font-style:normal;font-weight:normal;font-size:11.25px;line-height:1.25;font-family:sans-serif;letter-spacing:0px;word-spacing:0px;fill:#000000;fill-opacity:1;stroke:none;stroke-width:0.28125"
       x="142.52679"
       y="287.35715"
       id="text829"><tspan
         sodipodi:role="line"
         id="tspan827"
         x="142.52679"
         y="287.35715"
         style="stroke-width:0.28125">lifetimes</tspan></text>
  </g>
</svg>
